D:\work\kpmg\test\db-analytics\dbanalyzer-core\src\test\java\com\db\demomidtier\DBConnectorTest.java
D:\work\kpmg\test\db-analytics\dbanalyzer-core\src\test\java\com\db\demomidtier\LoginControllerTest.java
D:\work\kpmg\test\db-analytics\dbanalyzer-core\src\test\java\com\db\demomidtier\PropertyLoaderTest.java
D:\work\kpmg\test\db-analytics\dbanalyzer-core\src\test\java\com\db\demomidtier\UserDataTest.java
D:\work\kpmg\test\db-analytics\dbanalyzer-core\src\test\java\com\db\demomidtier\UtilsTest.java
